      (0  ;   0)    (  2.5;   0)      
(         0;12)    (  0;   2        )
(-3.0; 20.1e-1)     (-2;2)
(3;0)(0;0)
(3;0)(0;0)
(3;0)(0;0)
(3;0)(0;0)
 (         0;12)    (  0;   2        )
 (         0;12)    (  0;   2        )

