I was 2  300  530 belarusian roubles and 
2  351 dollars 12/9/2010. 
After 1234 000 blr shopping 15.09.10 
I was left with 1 700 253 blr and 2 000$.
After shopping 16.09.10
I was left with 1 7  00    2 500 blr.
232     500 blr and 10     blr.