I was 2300530 belarusian roubles and 
2  351 dollars September 12, 2010. 
After shopping September 15, 2010 
I was left with 1700253 blr and 2 000$.
After shopping September 16, 2010
I was left with 1 7  00    2500 blr.
232500 blr and 10 blr.